Loading and preprocessing the data
…
Creating temporary folder to store the figures.

dir_create(path = 'figures/')

Loading the dataset.

# loading the data
df <- read_csv(file = 'activity.csv')
df

## # A tibble: 17,568 x 3
##    steps date       interval
##    <dbl> <date>        <dbl>
##  1    NA 2012-10-01        0
##  2    NA 2012-10-01        5
##  3    NA 2012-10-01       10
##  4    NA 2012-10-01       15
##  5    NA 2012-10-01       20
##  6    NA 2012-10-01       25
##  7    NA 2012-10-01       30
##  8    NA 2012-10-01       35
##  9    NA 2012-10-01       40
## 10    NA 2012-10-01       45
## # ... with 17,558 more rows

What is mean total number of steps taken per day?

Calculate the total number of steps taken per day

df %>% 
  group_by(date) %>% 
  summarise(total_steps = sum(steps, na.rm = TRUE))

## # A tibble: 61 x 2
##    date       total_steps
##    <date>           <dbl>
##  1 2012-10-01           0
##  2 2012-10-02         126
##  3 2012-10-03       11352
##  4 2012-10-04       12116
##  5 2012-10-05       13294
##  6 2012-10-06       15420
##  7 2012-10-07       11015
##  8 2012-10-08           0
##  9 2012-10-09       12811
## 10 2012-10-10        9900
## # ... with 51 more rows
…
##    steps     date interval 
##     2304        0        0

Devise a strategy for filling in all of the missing values in the dataset

Inputting the mean values for missing data.

df %>% 
  group_by(interval) %>% 
  mutate(steps = ifelse(test = is.na(steps), 
                        yes = round(x = mean(steps, na.rm = TRUE), digits = 0), no = steps))

## # A tibble: 17,568 x 3
## # Groups:   interval [288]
##    steps date       interval
##    <dbl> <date>        <dbl>
##  1     2 2012-10-01        0
##  2     0 2012-10-01        5
##  3     0 2012-10-01       10
##  4     0 2012-10-01       15
##  5     0 2012-10-01       20
##  6     2 2012-10-01       25
##  7     1 2012-10-01       30
##  8     1 2012-10-01       35
##  9     0 2012-10-01       40
## 10     1 2012-10-01       45
## # ... with 17,558 more rows

Create a new dataset that is equal to the original dataset but with the missing data filled in

Creating a new dataset with inputed data.

df_imputed <- df %>% 
  group_by(interval) %>% 
  mutate(steps = ifelse(test = is.na(steps), 
                        yes = round(x = mean(steps, na.rm = TRUE), digits = 0), no = steps)) %>% 
  ungroup
df_imputed

## # A tibble: 17,568 x 3
##    steps date       interval
##    <dbl> <date>        <dbl>
##  1     2 2012-10-01        0
##  2     0 2012-10-01        5
##  3     0 2012-10-01       10
##  4     0 2012-10-01       15
##  5     0 2012-10-01       20
##  6     2 2012-10-01       25
##  7     1 2012-10-01       30
##  8     1 2012-10-01       35
##  9     0 2012-10-01       40
## 10     1 2012-10-01       45
## # ... with 17,558 more rows
…
Data on the total number of steps taken each day became more normally distributed, with much more observations towards 10K to 15K steps. Mean and median steps did not differ.

Are there differences in activity patterns between weekdays and weekends?

Create a new factor variable in the dataset with two levels  weekday and weekend indicating whether a given date is a weekday or weekend day

df <- df %>% 
  mutate(
    wweek = weekdays(date),
    wweek = case_when(wweek %in% c('sbado', 'domingo') ~ 'weekend',
                      TRUE ~ 'weekday')
  )
df

## # A tibble: 17,568 x 4
##    steps date       interval wweek  
##    <dbl> <date>        <dbl> <chr>  
##  1    NA 2012-10-01        0 weekday
##  2    NA 2012-10-01        5 weekday
##  3    NA 2012-10-01       10 weekday
##  4    NA 2012-10-01       15 weekday
##  5    NA 2012-10-01       20 weekday
##  6    NA 2012-10-01       25 weekday
##  7    NA 2012-10-01       30 weekday
##  8    NA 2012-10-01       35 weekday
##  9    NA 2012-10-01       40 weekday
## 10    NA 2012-10-01       45 weekday
## # ... with 17,558 more rows
…
